<?xml version="1.0" encoding="utf-8"?>
<!-- Generator: Adobe Illustrator 21.1.0, SVG Export Plug-In . SVG Version: 6.00 Build 0)  -->
<svg version="1.0" id="Layer_1" xmlns="http://www.w3.org/2000/svg" xmlns:xlink="http://www.w3.org/1999/xlink" x="0px" y="0px"
	 width="362px" height="200px" viewBox="0 0 362 200" style="enable-background:new 0 0 362 200;" xml:space="preserve">
<style type="text/css">
	.st0{display:none;fill:#FFFFFF;}
	.st1{fill:#4A1F13;}
	.st2{font-family:'MyriadPro-Regular';}
	.st3{font-size:13.3287px;}
	.st4{fill:#255677;}
	.st5{fill:#FFFFFF;}
	.st6{font-family:'OpenSans';}
	.st7{font-size:26.6573px;}
	.st8{font-size:17.7715px;}
	.st9{fill:url(#SVGID_1_);}
	.st10{fill:url(#SVGID_2_);}
	.st11{fill:url(#SVGID_3_);}
	.st12{fill:url(#SVGID_4_);}
	.st13{fill:url(#SVGID_5_);}
	.st14{fill:url(#SVGID_6_);}
	.st15{fill:#FFC62B;}
	.st16{fill:url(#SVGID_7_);}
	.st17{fill:#99CF93;}
	.st18{fill:#A6D386;}
	.st19{fill:#B9D875;}
</style>
<polygon class="st0" points="26,0 26,67 56.5,43.5 82,69 82,0 "/>
<text transform="matrix(1 0 0 1 280 134.1079)" class="st1 st2 st3">  </text>
<rect class="st4" width="362" height="200"/>
<text transform="matrix(1 0 0 1 16.4499 159.5412)" class="st5 st6 st7">Internet of Things </text>
<text transform="matrix(1 0 0 1 250.7 134.2079)" class="st5 st2 st3">  </text>
<text transform="matrix(1 0 0 1 17.8333 178.0001)" class="st5 st6 st8">Training</text>
<g>
	<g>
		
			<linearGradient id="SVGID_1_" gradientUnits="userSpaceOnUse" x1="267.295" y1="146.0106" x2="267.295" y2="60.5247" gradientTransform="matrix(1 0 0 1 0 -30)">
			<stop  offset="0" style="stop-color:#46BFED"/>
			<stop  offset="0.1768" style="stop-color:#46BCEC"/>
			<stop  offset="0.3428" style="stop-color:#45B5E8"/>
			<stop  offset="0.5044" style="stop-color:#41A9DF"/>
			<stop  offset="0.6634" style="stop-color:#4499D4"/>
			<stop  offset="0.8204" style="stop-color:#4584C5"/>
			<stop  offset="0.974" style="stop-color:#466FB6"/>
			<stop  offset="1" style="stop-color:#466BB3"/>
		</linearGradient>
		<path class="st9" d="M265.8,76.8c0-1.3,0-2.5,0-3.9c0-1.4,0-3,0-4.4l3.1,0.1c0,1.4,0,2.9,0,4.3c0,1.3,0,2.5,0,3.9H265.8z"/>
	</g>
	<g>
		
			<linearGradient id="SVGID_2_" gradientUnits="userSpaceOnUse" x1="288.0669" y1="146.0106" x2="288.0669" y2="60.5246" gradientTransform="matrix(1 0 0 1 0 -30)">
			<stop  offset="0" style="stop-color:#46BFED"/>
			<stop  offset="0.1768" style="stop-color:#46BCEC"/>
			<stop  offset="0.3428" style="stop-color:#45B5E8"/>
			<stop  offset="0.5044" style="stop-color:#41A9DF"/>
			<stop  offset="0.6634" style="stop-color:#4499D4"/>
			<stop  offset="0.8204" style="stop-color:#4584C5"/>
			<stop  offset="0.974" style="stop-color:#466FB6"/>
			<stop  offset="1" style="stop-color:#466BB3"/>
		</linearGradient>
		<path class="st10" d="M289.6,76.7l-3.1-0.1c0-1.2,0-2.4,0-3.6c0-1.5,0-3,0-4.4h3.1c0,1.4,0,3,0,4.5
			C289.7,74.2,289.7,75.4,289.6,76.7z"/>
	</g>
	<g>
		
			<linearGradient id="SVGID_3_" gradientUnits="userSpaceOnUse" x1="308.7427" y1="55.1838" x2="264.8813" y2="137.4237" gradientTransform="matrix(1 0 0 1 0 -30)">
			<stop  offset="0" style="stop-color:#46BFED"/>
			<stop  offset="0.1768" style="stop-color:#46BCEC"/>
			<stop  offset="0.3428" style="stop-color:#45B5E8"/>
			<stop  offset="0.5044" style="stop-color:#41A9DF"/>
			<stop  offset="0.6634" style="stop-color:#4499D4"/>
			<stop  offset="0.8204" style="stop-color:#4584C5"/>
			<stop  offset="0.974" style="stop-color:#466FB6"/>
			<stop  offset="1" style="stop-color:#466BB3"/>
		</linearGradient>
		<path class="st11" d="M273.2,81.7v3.1c1.4,0,3,0,4.5,0s3.1,0,4.6-0.1l-0.1-3.1C279.3,81.8,276.2,81.8,273.2,81.7z"/>
		
			<linearGradient id="SVGID_4_" gradientUnits="userSpaceOnUse" x1="300.1177" y1="50.5836" x2="256.2563" y2="132.8237" gradientTransform="matrix(1 0 0 1 0 -30)">
			<stop  offset="0" style="stop-color:#46BFED"/>
			<stop  offset="0.1768" style="stop-color:#46BCEC"/>
			<stop  offset="0.3428" style="stop-color:#45B5E8"/>
			<stop  offset="0.5044" style="stop-color:#41A9DF"/>
			<stop  offset="0.6634" style="stop-color:#4499D4"/>
			<stop  offset="0.8204" style="stop-color:#4584C5"/>
			<stop  offset="0.974" style="stop-color:#466FB6"/>
			<stop  offset="1" style="stop-color:#466BB3"/>
		</linearGradient>
		<path class="st12" d="M273.2,61v3.1c3,0,6-0.1,8.9,0l0.1-3.1C279.3,60.9,276.2,60.9,273.2,61z"/>
		
			<linearGradient id="SVGID_5_" gradientUnits="userSpaceOnUse" x1="304.4532" y1="52.8959" x2="260.5918" y2="135.1364" gradientTransform="matrix(1 0 0 1 0 -30)">
			<stop  offset="0" style="stop-color:#46BFED"/>
			<stop  offset="0.1768" style="stop-color:#46BCEC"/>
			<stop  offset="0.3428" style="stop-color:#45B5E8"/>
			<stop  offset="0.5044" style="stop-color:#41A9DF"/>
			<stop  offset="0.6634" style="stop-color:#4499D4"/>
			<stop  offset="0.8204" style="stop-color:#4584C5"/>
			<stop  offset="0.974" style="stop-color:#466FB6"/>
			<stop  offset="1" style="stop-color:#466BB3"/>
		</linearGradient>
		<path class="st13" d="M321.4,72.6L321.4,72.6c0-0.1,0-0.1,0-0.2c-0.2-22.8-18-41.5-40.5-43.1c-1.1-0.2-2.1-0.3-3.2-0.3
			s-2.2,0.1-3.2,0.3c-22.6,1.7-40.5,20.5-40.5,43.6c0,24,19.5,43.7,43.7,43.7h0.1h0.1c23.9-0.1,43.4-19.5,43.6-43.4V73L321.4,72.6z
			 M315.6,58.6c-3.4-4-8.3-7.3-14-9.7c-2.4-5.6-5.7-10.4-9.6-13.9C302.9,39.1,311.5,47.7,315.6,58.6z M317.5,67.7
			c-3.1-1.9-7.6-3.2-11.8-4.1c-0.6-3.7-1.3-7.3-2.4-10.6C310.4,56.6,315.5,61.7,317.5,67.7z M293.3,84.2c3.2-0.3,6.2-0.7,9-1.2
			c-0.7,4.1-1.8,7.9-3.1,11.4c-3.5,1.4-7.4,2.4-11.6,3.1c0.6-3,1-6.3,1.3-9.7l-3.1-0.3c-0.3,3.7-0.8,7.3-1.4,10.5
			c-2.2,0.2-4.4,0.3-6.7,0.3s-4.5-0.1-6.7-0.3c-0.6-3.2-1.1-6.6-1.4-10.3l-3.1,0.3c0.3,3.4,0.8,6.6,1.2,9.6
			c-4.1-0.7-7.9-1.8-11.5-3.1c-1.3-3.4-2.4-7.3-3.1-11.4c2.9,0.4,5.8,0.9,9,1.2l0.3-3.1c-3.5-0.3-6.8-0.8-9.8-1.3
			c-0.2-2.2-0.3-4.5-0.3-6.9c0-2.2,0.1-4.4,0.3-6.6c3-0.6,6.3-1,9.8-1.4l-0.3-3.1c-3.3,0.3-6.3,0.8-9.2,1.2
			c0.7-4.2,1.8-8.2,3.2-11.7c3.5-1.4,7.4-2.4,11.6-3.1c-0.6,3-1,6.2-1.2,9.5l3.1,0.3c0.3-3.6,0.8-7.1,1.4-10.1
			c2.2-0.2,4.4-0.3,6.7-0.3s4.5,0.1,6.7,0.3c0.6,3.2,1.1,6.5,1.4,10l3.1-0.3c-0.3-3.2-0.8-6.4-1.2-9.3c4.2,0.7,8,1.8,11.6,3.1
			c1.4,3.5,2.5,7.5,3.2,11.7c-2.9-0.6-5.8-0.9-9-1.2l-0.3,3.1c3.5,0.3,6.8,0.8,9.8,1.3c0.2,2.1,0.3,4.3,0.3,6.6
			c0,2.3-0.1,4.6-0.3,6.9c-3,0.6-6.3,1-9.8,1.3L293.3,84.2z M297.5,47.3c-3.3-1.1-6.7-1.9-10.5-2.4c-0.9-4.2-2.2-8.7-4.1-11.8
			C288.8,35,293.9,40.1,297.5,47.3z M277.7,32.4c1.7,0,4.1,3.7,6.1,12.1c-2-0.2-4-0.3-6.1-0.3c-2.1,0-4.1,0.1-6.1,0.3
			C273.6,36.1,276.1,32.4,277.7,32.4z M272.5,33c-1.9,3.1-3.2,7.5-4.1,11.8c-3.6,0.6-7.2,1.3-10.5,2.4C261.6,40.2,266.6,35,272.5,33
			z M263.4,35c-3.9,3.4-7.2,8.2-9.6,13.9c-5.8,2.5-10.6,5.8-14.1,9.8C243.8,47.8,252.5,39.1,263.4,35z M252.2,53
			c-1.1,3.3-2,6.8-2.4,10.6c-5.2,1.1-9.2,2.4-11.8,4C239.9,61.7,245.1,56.6,252.2,53z M237.2,73.2L237.2,73.2L237.2,73.2L237.2,73.2
			c0-0.2,0-0.3,0-0.4v-0.1c0.4-1.5,3.9-3.9,12.2-5.7c-0.2,2-0.2,3.9-0.2,6c0,2.1,0.1,4.2,0.3,6.3C240.5,77,237.5,74.5,237.2,73.2z
			 M249.9,82.3c0.6,3.6,1.3,7.1,2.4,10.3c-6.9-3.5-12-8.5-14.1-14.2C241.3,80.1,245.7,81.4,249.9,82.3z M239.5,86.6
			c3.4,4.1,8.4,7.5,14.3,10c2.5,6,6.1,11,10.3,14.4C252.6,107,243.6,98,239.5,86.6z M257.9,98.2c3.2,1.1,6.7,1.9,10.4,2.4
			c0.9,4.1,2.1,8.5,3.9,11.7C266.5,110.3,261.5,105.3,257.9,98.2z M278.4,113.3H277c-1.5-0.9-3.6-4.5-5.4-12.2
			c2,0.2,4.1,0.3,6.2,0.3s4.1-0.1,6.1-0.3C282.1,108.7,280,112.3,278.4,113.3z M283.2,112.3c1.8-3.2,3.1-7.6,4-11.7
			c3.6-0.6,7.2-1.3,10.4-2.4C294,105.3,288.9,110.3,283.2,112.3z M291.4,111.1c4.1-3.4,7.6-8.5,10.3-14.4c5.8-2.5,10.8-6,14.2-10
			C311.7,98,302.8,107,291.4,111.1z M303.2,92.6c1.1-3.2,1.9-6.6,2.4-10.3c4.1-0.9,8.6-2.2,11.7-4C315.3,84,310.2,88.9,303.2,92.6z
			 M318.2,73.1c-0.2,1.3-3.1,3.9-12.2,6c0.2-2.1,0.3-4.1,0.3-6.3c0-2-0.1-4-0.2-6c9.3,2.1,12,4.6,12.2,5.8v0.1
			C318.2,73,318.2,73,318.2,73.1z"/>
	</g>
	<g>
		
			<linearGradient id="SVGID_6_" gradientUnits="userSpaceOnUse" x1="202.1595" y1="181.2014" x2="301.4086" y2="2.1216" gradientTransform="matrix(1 0 0 1 0 -30)">
			<stop  offset="0" style="stop-color:#EC3092"/>
			<stop  offset="1" style="stop-color:#F7EC28"/>
		</linearGradient>
		<path class="st14" d="M233.4,109.6C225,99.3,220.2,86.3,220.2,73c0-31.6,25.8-57.4,57.4-57.4c10.1,0,20.2,2.6,28.9,7.8l-1.5,2.8
			c-8.3-4.9-17.6-7.4-27.3-7.4c-30,0-54.4,24.4-54.4,54.4c0,12.6,4.4,24.9,12.5,34.6L233.4,109.6z"/>
	</g>
	<circle class="st15" cx="304.1" cy="24" r="3.1"/>
	<g>
		
			<linearGradient id="SVGID_7_" gradientUnits="userSpaceOnUse" x1="212.1478" y1="110.293" x2="276.0293" y2="190.8936" gradientTransform="matrix(1 0 0 1 0 -30)">
			<stop  offset="0" style="stop-color:#EC3092"/>
			<stop  offset="1" style="stop-color:#F7EC28"/>
		</linearGradient>
		<path class="st16" d="M238.4,121.1c-4.3,0-7.7-3.4-7.7-7.7c0-4.3,3.4-7.7,7.7-7.7c4.3,0,7.7,3.4,7.7,7.7
			C246.1,117.7,242.7,121.1,238.4,121.1z M238.4,108.8c-2.5,0-4.6,2.1-4.6,4.6c0,2.5,2.1,4.6,4.6,4.6c2.5,0,4.6-2.1,4.6-4.6
			C243,110.9,240.9,108.8,238.4,108.8z"/>
	</g>
	<g>
		<g>
			<path class="st17" d="M249.9,123.2c-0.6-0.3-1.1-0.7-1.7-1l1.7-2.6c0.6,0.3,1.1,0.7,1.5,0.9L249.9,123.2z"/>
		</g>
		<g>
			<path class="st17" d="M277.7,130.4c-0.8,0-1.4,0-2.2,0l0.1-3.1c1.2,0,2.4,0,3.6,0l0.1,3.1C278.8,130.4,278.2,130.4,277.7,130.4z
				 M283.2,130.1l-0.3-3.1c1.2-0.1,2.4-0.2,3.6-0.4l0.6,3.1C285.7,129.9,284.5,130,283.2,130.1z M271.7,130.1
				c-1.2-0.1-2.5-0.3-3.7-0.6l0.6-3.1c1.2,0.2,2.4,0.3,3.6,0.4L271.7,130.1z M290.8,128.9l-0.7-3.1c1.2-0.2,2.3-0.6,3.5-1l0.9,3
				C293.2,128.3,292,128.6,290.8,128.9z M264.2,128.7c-1.2-0.3-2.4-0.7-3.6-1l1-3c1.1,0.3,2.3,0.7,3.5,1L264.2,128.7z M298.1,126.7
				l-1.1-3c1.1-0.4,2.2-0.9,3.3-1.4l1.3,2.9C300.5,125.7,299.3,126.2,298.1,126.7z M256.8,126.4c-1.2-0.4-2.3-1-3.5-1.5l1.3-2.9
				c1.1,0.6,2.2,1,3.3,1.4L256.8,126.4z M305,123.5l-1.5-2.8c1.1-0.6,2.1-1.2,3.1-1.9l1.7,2.6C307.3,122.2,306.2,122.9,305,123.5z
				 M311.5,119.4l-1.9-2.5c1-0.7,2-1.4,2.9-2.2l2,2.4C313.6,117.8,312.6,118.6,311.5,119.4z M317.5,114.4l-2.2-2.3
				c0.9-0.9,1.8-1.7,2.5-2.5l2.3,2.1C319.2,112.6,318.3,113.5,317.5,114.4z M322.5,108.8l-2.4-2c0.8-1,1.4-1.9,2.2-2.9l2.5,1.8
				C324.2,106.8,323.4,107.8,322.5,108.8z M327,102.5l-2.6-1.7c0.7-1,1.2-2.1,1.8-3.2l2.8,1.4C328.3,100.3,327.6,101.4,327,102.5z
				 M330.5,95.7l-2.9-1.2c0.4-1.1,0.9-2.2,1.3-3.4l3,1.1C331.5,93.4,330.9,94.6,330.5,95.7z M333,88.5l-3-0.9
				c0.3-1.2,0.7-2.3,0.9-3.5l3.1,0.7C333.7,86,333.3,87.3,333,88.5z M334.6,81l-3.1-0.4c0.2-1.2,0.3-2.4,0.3-3.6l3.1,0.2
				C334.9,78.5,334.8,79.8,334.6,81z M335.1,73.4H332V73c0-1.1,0-2.1-0.1-3.2l3.1-0.2c0.1,1.1,0.1,2.3,0.1,3.4V73.4z M331.6,66.1
				c-0.1-1.2-0.3-2.4-0.6-3.5l3.1-0.6c0.2,1.2,0.4,2.5,0.6,3.7L331.6,66.1z M330.3,58.9c-0.3-1.2-0.7-2.3-1-3.4l3-1
				c0.4,1.2,0.8,2.4,1.1,3.6L330.3,58.9z M327.9,52.1c-0.4-1.1-1-2.2-1.5-3.3l2.9-1.4c0.6,1.1,1.1,2.3,1.5,3.5L327.9,52.1z
				 M324.6,45.6c-0.6-1-1.2-2.1-1.9-3.1l2.6-1.8c0.7,1.1,1.4,2.1,2,3.2L324.6,45.6z"/>
		</g>
		<g>
			<path class="st17" d="M320.6,39.5c-0.3-0.4-0.8-1-1.1-1.4l2.4-2c0.4,0.4,0.8,1,1.2,1.5L320.6,39.5z"/>
		</g>
	</g>
	<circle class="st18" cx="250.3" cy="122" r="3.1"/>
	<g>
		<path class="st5" d="M274.8,89.3h-14.1V75.2h14.1V89.3z M263.9,86.1h7.8v-7.8h-7.8V86.1z"/>
	</g>
	<g>
		<path class="st5" d="M294.8,89.2h-14.1V75h14.1V89.2z M283.8,86h7.8v-7.8h-7.8V86z"/>
	</g>
	<g>
		<path class="st5" d="M274.8,70.2h-14.1V56.1h14.1V70.2z M263.9,67h7.8v-7.8h-7.8V67z"/>
	</g>
	<g>
		<path class="st5" d="M294.8,70h-14.1V56h14.1V70z M283.8,66.9h7.8v-7.8h-7.8V66.9z"/>
	</g>
	<g>
		<path class="st19" d="M316.7,41.2c-4.3,0-7.7-3.4-7.7-7.7s3.4-7.7,7.7-7.7s7.7,3.4,7.7,7.7S321,41.2,316.7,41.2z M316.7,28.8
			c-2.5,0-4.6,2.1-4.6,4.6s2.1,4.6,4.6,4.6c2.5,0,4.6-2.1,4.6-4.6S319.2,28.8,316.7,28.8z"/>
	</g>
</g>
</svg>
