%!PS-Adobe-3.0 EPSF-3.0
%%HiResBoundingBox: 0 0 610 176
%%BoundingBox: 0 0 610 176
%%Creator: Serif Affinity
%LanguageLevel: 3
%%DocumentData: Clean7Bit
%ADO_ContainsXMP: MainFirst
%%EndComments
%%BeginProlog
101 dict begin
/m/moveto
/L/rlineto
/C/rcurveto
/q/gsave
/Q/grestore
/n/newpath
/h/closepath
/f/fill
/f*/eofill
/S/stroke
/w/setlinewidth
/J/setlinecap
/j/setlinejoin
/ml/setmiterlimit
/d/setdash
/sc/setcolor
/scs/setcolorspace
17{load def}repeat
%%EndProlog
/currentdistillerparams where
{pop currentdistillerparams /CoreDistVersion get 5000 lt} {true} ifelse
{userdict /EPSHandler1_pdfmark /cleartomark load put
userdict /EPSHandler1_ReadMetadata_pdfmark {flushfile cleartomark} bind put}
{ userdict /EPSHandler1_pdfmark /pdfmark load put
userdict /EPSHandler1_ReadMetadata_pdfmark {/PUT pdfmark} bind put } ifelse
[/NamespacePush EPSHandler1_pdfmark
[/_objdef {eps_metadata_stream} /type /stream /OBJ EPSHandler1_pdfmark
[{eps_metadata_stream} 2 dict begin
/Type /Metadata def /Subtype /XML def currentdict end /PUT EPSHandler1_pdfmark
[{eps_metadata_stream}
currentfile 0 (% &&end EPS XMP packet marker&&)
/SubFileDecode filter EPSHandler1_ReadMetadata_pdfmark
<?xpacket begin="﻿" id="W5M0MpCehiHzreSzNTczkc9d"?>
<x:xmpmeta xmlns:x="adobe:ns:meta/" x:xmptk="XMP Core 5.5.0">
 <rdf:RDF xmlns:rdf="http://www.w3.org/1999/02/22-rdf-syntax-ns#">
  <rdf:Description rdf:about=""
    xmlns:exif="http://ns.adobe.com/exif/1.0/"
    xmlns:tiff="http://ns.adobe.com/tiff/1.0/"
    xmlns:xmp="http://ns.adobe.com/xap/1.0/"
    xmlns:xmpMM="http://ns.adobe.com/xap/1.0/mm/"
    xmlns:stEvt="http://ns.adobe.com/xap/1.0/sType/ResourceEvent#"
   exif:PixelXDimension="2541.666667"
   exif:PixelYDimension="733.333333"
   tiff:ImageWidth="2541.666667"
   tiff:ImageLength="733.333333"
   tiff:ResolutionUnit="2"
   tiff:XResolution="300.0"
   tiff:YResolution="300.0"
   xmp:ModifyDate="2019-07-31T09:04:46+02:00"
   xmp:MetadataDate="2019-07-31T09:04:46+02:00">
   <xmpMM:History>
    <rdf:Seq>
     <rdf:li
      stEvt:action="produced"
      stEvt:softwareAgent="Affinity Designer 1.7.1"
      stEvt:when="2019-07-31T09:04:46+02:00"/>
    </rdf:Seq>
   </xmpMM:History>
  </rdf:Description>
 </rdf:RDF>
</x:xmpmeta>
                                                                                                    
                                                                                                    
                                                                                                    
                                                                                                    
                                                                                                    
                                                                                                    
                                                                                                    
                                                                                                    
                                                                                                    
                                                                                                    
                                                                                                    
                                                                                                    
                                                                                                    
                                                                                                    
                                                                                                    
                                                                                                    
                                                                                                    
                                                                                                    
                                                                                                    
                                                                                                    
                           
<?xpacket end="w"?>
% &&end EPS XMP packet marker&&
[/Document
1 dict begin /Metadata {eps_metadata_stream} def
currentdict end /BDC EPSHandler1_pdfmark
[/NamespacePop EPSHandler1_pdfmark

q
/DeviceCMYK scs
n
16.491 59.155 m
-5.699 0 -9.803 0.533 -13.451 1.369 C
-0.761 0.151 -1.444 0.683 -1.444 1.519 C
0 0 0 5.472 0 5.472 C
0 0.836 0.683 1.443 1.444 1.443 C
0.075 0 0.075 0 0.151 0 C
3.041 -0.379 10.641 -0.759 13.452 -0.759 C
6.764 0 8.816 2.432 8.816 6.84 C
0 2.963 -1.444 4.483 -6.46 7.447 C
0 0 -10.032 6.004 -10.032 6.004 C
-7.068 4.179 -8.967 8.587 -8.967 13.908 C
0 8.359 4.864 14.438 18.999 14.438 C
5.016 0 12.007 -0.759 14.591 -1.368 C
0.761 -0.152 1.369 -0.683 1.369 -1.444 C
0 0 0 -5.623 0 -5.623 C
0 -0.76 -0.533 -1.368 -1.293 -1.368 C
-0.076 0 -0.076 0 -0.152 0 C
-5.015 0.456 -10.031 0.761 -14.971 0.761 C
-5.624 0 -7.98 -1.977 -7.98 -5.396 C
0 -2.509 1.292 -4.028 6.232 -6.764 C
0 0 9.12 -5.092 9.12 -5.092 C
8.359 -4.636 10.563 -9.5 10.563 -15.503 C
0 -7.677 -4.787 -15.884 -19.987 -15.884 C
h
0 0 0 1 sc
f
79.288 60.219 m
-2.432 -0.38 -5.396 -1.064 -14.44 -1.064 C
-9.88 0 -17.555 2.66 -17.555 15.58 C
0 0 0 26.522 0 26.522 C
0 12.92 7.675 15.579 17.555 15.579 C
9.044 0 12.008 -0.683 14.44 -1.063 C
1.14 -0.152 1.519 -0.532 1.519 -1.596 C
0 0 0 -4.864 0 -4.864 C
0 -0.836 -0.683 -1.519 -1.519 -1.519 C
0 0 -15.504 0 -15.504 0 C
-4.407 0 -6.004 -1.521 -6.004 -6.537 C
0 0 0 -8.208 0 -8.208 C
0 0 20.596 0 20.596 0 C
0.836 0 1.52 -0.683 1.52 -1.519 C
0 0 0 -5.472 0 -5.472 C
0 -0.836 -0.684 -1.52 -1.52 -1.52 C
0 0 -20.596 0 -20.596 0 C
0 0 0 -9.803 0 -9.803 C
0 -5.016 1.597 -6.536 6.004 -6.536 C
0 0 15.504 0 15.504 0 C
0.836 0 1.519 -0.684 1.519 -1.52 C
0 0 0 -4.864 0 -4.864 C
0 -1.064 -0.379 -1.444 -1.519 -1.596 C
h
0 0 0 1 sc
f
135.059 59.763 m
0 0 -7.828 0 -7.828 0 C
-0.836 0 -1.368 0.684 -1.368 1.52 C
0 0 0 34.275 0 34.275 C
0 8.663 -3.04 12.159 -10.336 12.159 C
-3.799 0 -7.979 -0.304 -10.487 -0.608 C
0 0 0 -45.826 0 -45.826 C
0 -0.836 -0.608 -1.52 -1.444 -1.52 C
0 0 -7.676 0 -7.676 0 C
-0.836 0 -1.444 0.684 -1.444 1.52 C
0 0 0 50.386 0 50.386 C
0 2.812 0.836 3.496 3.192 3.876 C
4.104 0.608 12.388 1.291 16.796 1.291 C
14.135 0 22.039 -5.091 22.039 -21.278 C
0 0 0 -34.275 0 -34.275 C
0 -0.836 -0.608 -1.52 -1.444 -1.52 C
h
0 0 0 1 sc
f
163.385 59.155 m
-5.699 0 -9.803 0.533 -13.451 1.369 C
-0.76 0.151 -1.444 0.683 -1.444 1.519 C
0 0 0 5.472 0 5.472 C
0 0.836 0.684 1.443 1.444 1.443 C
0.076 0 0.076 0 0.153 0 C
3.039 -0.379 10.639 -0.759 13.451 -0.759 C
6.763 0 8.816 2.432 8.816 6.84 C
0 2.963 -1.445 4.483 -6.461 7.447 C
0 0 -10.031 6.004 -10.031 6.004 C
-7.068 4.179 -8.967 8.587 -8.967 13.908 C
0 8.359 4.863 14.438 18.998 14.438 C
5.016 0 12.008 -0.759 14.592 -1.368 C
0.76 -0.152 1.368 -0.683 1.368 -1.444 C
0 0 0 -5.623 0 -5.623 C
0 -0.76 -0.532 -1.368 -1.292 -1.368 C
-0.076 0 -0.076 0 -0.152 0 C
-5.016 0.456 -10.032 0.761 -14.972 0.761 C
-5.624 0 -7.979 -1.977 -7.979 -5.396 C
0 -2.509 1.292 -4.028 6.232 -6.764 C
0 0 9.119 -5.092 9.119 -5.092 C
8.36 -4.636 10.564 -9.5 10.564 -15.503 C
0 -7.677 -4.788 -15.884 -19.988 -15.884 C
h
0 0 0 1 sc
f
273.749 107.413 m
0 0 -13.3 0 -13.3 0 C
0 0 0 -46.13 0 -46.13 C
0 -0.836 -0.684 -1.52 -1.521 -1.52 C
0 0 -7.522 0 -7.522 0 C
-0.837 0 -1.521 0.684 -1.521 1.52 C
0 0 0 46.13 0 46.13 C
0 0 -13.299 0 -13.299 0 C
-0.836 0 -1.519 0.532 -1.519 1.368 C
0 0 0 6.004 0 6.004 C
0 0.836 0.683 1.444 1.519 1.444 C
0 0 37.163 0 37.163 0 C
0.836 0 1.52 -0.608 1.52 -1.444 C
0 0 0 -6.004 0 -6.004 C
0 -0.836 -0.684 -1.368 -1.52 -1.368 C
h
0 0 0 1 sc
f
293.973 59.763 m
0 0 -7.524 0 -7.524 0 C
-0.836 0 -1.519 0.684 -1.519 1.52 C
0 0 0 53.502 0 53.502 C
0 0.836 0.683 1.444 1.519 1.444 C
0 0 7.524 0 7.524 0 C
0.836 0 1.52 -0.608 1.52 -1.444 C
0 0 0 -53.502 0 -53.502 C
0 -0.836 -0.684 -1.52 -1.52 -1.52 C
h
0 0 0 1 sc
f
351.654 114.557 m
0 0 -12.463 -47.65 -12.463 -47.65 C
-1.825 -7.068 -7.296 -7.752 -10.564 -7.752 C
-3.268 0 -8.739 0.684 -10.563 7.752 C
0 0 -12.464 47.65 -12.464 47.65 C
0 0.152 -0.076 0.228 -0.076 0.38 C
0 0.76 0.608 1.292 1.368 1.292 C
0 0 8.055 0 8.055 0 C
0.684 0 1.292 -0.608 1.445 -1.292 C
0 0 11.019 -45.674 11.019 -45.674 C
0.229 -0.912 0.456 -1.216 1.216 -1.216 C
0.761 0 0.988 0.304 1.216 1.216 C
0 0 11.019 45.674 11.019 45.674 C
0.153 0.684 0.761 1.292 1.445 1.292 C
0 0 8.055 0 8.055 0 C
0.76 0 1.369 -0.532 1.369 -1.292 C
0 -0.152 -0.077 -0.228 -0.077 -0.38 C
h
0 0 0 1 sc
f
189.338 61.447 m
0 0 12.463 47.65 12.463 47.65 C
1.823 7.068 7.294 7.751 10.563 7.751 C
3.268 0 8.74 -0.683 10.563 -7.751 C
0 0 12.464 -47.65 12.464 -47.65 C
0 -0.152 0.075 -0.228 0.075 -0.38 C
0 -0.76 -0.607 -1.292 -1.367 -1.292 C
0 0 -8.056 0 -8.056 0 C
-0.684 0 -1.292 0.609 -1.444 1.292 C
0 0 -11.02 45.674 -11.02 45.674 C
-0.228 0.912 -0.455 1.216 -1.215 1.216 C
-0.76 0 -0.988 -0.304 -1.216 -1.216 C
0 0 -11.019 -45.674 -11.019 -45.674 C
-0.151 -0.683 -0.76 -1.292 -1.443 -1.292 C
0 0 -8.057 0 -8.057 0 C
-0.76 0 -1.367 0.532 -1.367 1.292 C
0 0.152 0.076 0.228 0.076 0.38 C
h
0 0 0 1 sc
f
391.665 60.219 m
-2.432 -0.38 -5.395 -1.064 -14.439 -1.064 C
-9.88 0 -17.555 2.66 -17.555 15.58 C
0 0 0 26.522 0 26.522 C
0 12.92 7.675 15.579 17.555 15.579 C
9.044 0 12.007 -0.683 14.439 -1.063 C
1.141 -0.152 1.521 -0.532 1.521 -1.596 C
0 0 0 -4.864 0 -4.864 C
0 -0.836 -0.684 -1.519 -1.521 -1.519 C
0 0 -15.503 0 -15.503 0 C
-4.408 0 -6.004 -1.521 -6.004 -6.537 C
0 0 0 -8.208 0 -8.208 C
0 0 20.596 0 20.596 0 C
0.836 0 1.52 -0.683 1.52 -1.519 C
0 0 0 -5.472 0 -5.472 C
0 -0.836 -0.684 -1.52 -1.52 -1.52 C
0 0 -20.596 0 -20.596 0 C
0 0 0 -9.803 0 -9.803 C
0 -5.016 1.596 -6.536 6.004 -6.536 C
0 0 15.503 0 15.503 0 C
0.837 0 1.521 -0.684 1.521 -1.52 C
0 0 0 -4.864 0 -4.864 C
0 -1.064 -0.38 -1.444 -1.521 -1.596 C
h
0 0 0 1 sc
f
544.693 174.053 m
0 0 -12.494 -47.767 -12.494 -47.767 C
-1.829 -7.085 -7.314 -7.771 -10.592 -7.771 C
-3.274 0 -8.758 0.686 -10.587 7.771 C
0 0 -12.495 47.767 -12.495 47.767 C
0 0.152 -0.075 0.228 -0.075 0.38 C
0 0.762 0.609 1.296 1.371 1.296 C
0 0 8.076 0 8.076 0 C
0.684 0 1.294 -0.61 1.446 -1.296 C
0 0 11.048 -45.785 11.048 -45.785 C
0.226 -0.915 0.456 -1.219 1.216 -1.219 C
0.763 0 0.992 0.304 1.22 1.219 C
0 0 11.048 45.785 11.048 45.785 C
0.152 0.686 0.761 1.296 1.447 1.296 C
0 0 8.076 0 8.076 0 C
0.761 0 1.371 -0.534 1.371 -1.296 C
0 -0.152 -0.076 -0.228 -0.076 -0.38 C
h
0 0 0 1 sc
f
498.525 1.677 m
0 0 12.495 47.766 12.495 47.766 C
1.829 7.085 7.313 7.77 10.587 7.77 C
3.279 0 8.763 -0.685 10.592 -7.77 C
0 0 12.494 -47.766 12.494 -47.766 C
0 -0.153 0.077 -0.23 0.077 -0.381 C
0 -0.762 -0.611 -1.296 -1.372 -1.296 C
0 0 -8.076 0 -8.076 0 C
-0.685 0 -1.295 0.609 -1.447 1.296 C
0 0 -11.048 45.785 -11.048 45.785 C
-0.228 0.914 -0.455 1.22 -1.22 1.22 C
-0.759 0 -0.99 -0.306 -1.216 -1.22 C
0 0 -11.047 -45.785 -11.047 -45.785 C
-0.152 -0.687 -0.762 -1.296 -1.447 -1.296 C
0 0 -8.076 0 -8.076 0 C
-0.762 0 -1.371 0.534 -1.371 1.296 C
0 0.151 0.075 0.228 0.075 0.381 C
h
0 0 0 1 sc
f
435.42 110.947 m
0 0 47.767 -12.494 47.767 -12.494 C
7.085 -1.828 7.771 -7.313 7.771 -10.589 C
0 -3.276 -0.686 -8.761 -7.771 -10.59 C
0 0 -47.767 -12.494 -47.767 -12.494 C
-0.151 0 -0.228 -0.075 -0.381 -0.075 C
-0.761 0 -1.294 0.609 -1.294 1.371 C
0 0 0 8.076 0 8.076 C
0 0.685 0.61 1.295 1.294 1.447 C
0 0 45.786 11.046 45.786 11.046 C
0.915 0.229 1.219 0.457 1.219 1.219 C
0 0.762 -0.304 0.991 -1.219 1.219 C
0 0 -45.786 11.047 -45.786 11.047 C
-0.684 0.152 -1.294 0.761 -1.294 1.447 C
0 0 0 8.075 0 8.075 C
0 0.763 0.533 1.372 1.294 1.372 C
0.153 0 0.23 -0.077 0.381 -0.077 C
h
0 0 0 1 sc
f
607.797 64.781 m
0 0 -47.767 12.494 -47.767 12.494 C
-7.085 1.829 -7.769 7.313 -7.769 10.589 C
0 3.276 0.684 8.761 7.769 10.59 C
0 0 47.767 12.494 47.767 12.494 C
0.153 0 0.23 0.076 0.381 0.076 C
0.762 0 1.296 -0.609 1.296 -1.372 C
0 0 0 -8.075 0 -8.075 C
0 -0.685 -0.611 -1.295 -1.296 -1.447 C
0 0 -45.785 -11.047 -45.785 -11.047 C
-0.914 -0.228 -1.22 -0.457 -1.22 -1.219 C
0 -0.762 0.306 -0.99 1.22 -1.218 C
0 0 45.785 -11.047 45.785 -11.047 C
0.685 -0.152 1.296 -0.761 1.296 -1.447 C
0 0 0 -8.076 0 -8.076 C
0 -0.761 -0.534 -1.371 -1.296 -1.371 C
-0.151 0 -0.228 0.076 -0.381 0.076 C
h
0 0 0 1 sc
f
476.987 165.131 m
0 0 24.942 -42.61 24.942 -42.61 C
3.717 -6.304 0.323 -10.667 -1.993 -12.984 C
-2.317 -2.316 -6.679 -5.709 -12.983 -1.993 C
0 0 -42.611 24.942 -42.611 24.942 C
-0.108 0.108 -0.215 0.108 -0.322 0.216 C
-0.539 0.538 -0.487 1.346 0.053 1.885 C
0 0 5.709 5.71 5.709 5.71 C
0.486 0.485 1.348 0.485 1.94 0.108 C
0 0 40.186 -24.565 40.186 -24.565 C
0.809 -0.485 1.186 -0.539 1.725 0 C
0.539 0.539 0.484 0.916 0 1.724 C
0 0 -24.565 40.187 -24.565 40.187 C
-0.376 0.592 -0.377 1.454 0.108 1.939 C
0 0 5.71 5.71 5.71 5.71 C
0.539 0.539 1.347 0.593 1.886 0.055 C
0.108 -0.108 0.107 -0.217 0.215 -0.324 C
h
0 0 0 1 sc
f
566.232 10.598 m
0 0 -24.942 42.612 -24.942 42.612 C
-3.717 6.302 -0.323 10.665 1.993 12.981 C
2.317 2.317 6.68 5.711 12.983 1.994 C
0 0 42.61 -24.943 42.61 -24.943 C
0.108 -0.106 0.216 -0.106 0.324 -0.215 C
0.538 -0.538 0.485 -1.346 -0.054 -1.884 C
0 0 -5.71 -5.71 -5.71 -5.71 C
-0.485 -0.486 -1.348 -0.486 -1.94 -0.109 C
0 0 -40.186 24.565 -40.186 24.565 C
-0.809 0.484 -1.185 0.538 -1.724 0 C
-0.538 -0.539 -0.484 -0.916 0 -1.724 C
0 0 24.564 -40.187 24.564 -40.187 C
0.377 -0.592 0.377 -1.455 -0.108 -1.94 C
0 0 -5.709 -5.709 -5.709 -5.709 C
-0.539 -0.54 -1.348 -0.592 -1.886 -0.054 C
-0.107 0.107 -0.107 0.215 -0.215 0.323 C
h
0 0 0 1 sc
f
444.342 43.242 m
0 0 42.611 24.943 42.611 24.943 C
6.304 3.716 10.666 0.322 12.983 -1.994 C
2.316 -2.317 5.71 -6.68 1.994 -12.984 C
0 0 -24.943 -42.61 -24.943 -42.61 C
-0.107 -0.108 -0.107 -0.215 -0.215 -0.324 C
-0.539 -0.538 -1.347 -0.484 -1.885 0.056 C
0 0 -5.711 5.709 -5.711 5.709 C
-0.484 0.485 -0.484 1.348 -0.108 1.94 C
0 0 24.565 40.187 24.565 40.187 C
0.486 0.807 0.539 1.185 0 1.724 C
-0.539 0.538 -0.916 0.484 -1.723 0 C
0 0 -40.188 -24.566 -40.188 -24.566 C
-0.592 -0.376 -1.453 -0.376 -1.939 0.109 C
0 0 -5.71 5.711 -5.71 5.711 C
-0.538 0.537 -0.592 1.346 -0.053 1.884 C
0.107 0.109 0.215 0.109 0.322 0.215 C
h
0 0 0 1 sc
f
598.876 132.486 m
0 0 -42.61 -24.942 -42.61 -24.942 C
-6.303 -3.716 -10.666 -0.323 -12.984 1.994 C
-2.315 2.316 -5.709 6.679 -1.993 12.983 C
0 0 24.943 42.61 24.943 42.61 C
0.107 0.108 0.108 0.216 0.215 0.324 C
0.538 0.538 1.347 0.484 1.885 -0.055 C
0 0 5.71 -5.71 5.71 -5.71 C
0.485 -0.484 0.485 -1.347 0.108 -1.939 C
0 0 -24.564 -40.186 -24.564 -40.186 C
-0.486 -0.809 -0.54 -1.186 0 -1.725 C
0.538 -0.539 0.915 -0.484 1.723 0 C
0 0 40.187 24.565 40.187 24.565 C
0.592 0.377 1.454 0.378 1.94 -0.108 C
0 0 5.71 -5.71 5.71 -5.71 C
0.539 -0.539 0.592 -1.347 0.054 -1.885 C
-0.108 -0.108 -0.217 -0.108 -0.324 -0.216 C
h
0 0 0 1 sc
f
531.21 87.9 m
0 -5.337 -4.326 -9.663 -9.663 -9.663 C
-5.337 0 -9.662 4.326 -9.662 9.663 C
0 5.336 4.325 9.663 9.662 9.663 C
5.337 0 9.663 -4.327 9.663 -9.663 C
h
0 0 0 1 sc
f
Q
showpage
end
/currentdistillerparams where
{pop currentdistillerparams /CoreDistVersion get 5000 lt} {true} ifelse
{userdict /EPSHandler1_pdfmark /cleartomark load put}
{ userdict /EPSHandler1_pdfmark /pdfmark load put} ifelse
[/EMC EPSHandler1_pdfmark
